<?xml version="1.0" encoding="UTF-8" standalone="no"?>
<!-- Created with Inkscape (http://www.inkscape.org/) -->

<svg
   xmlns:dc="http://purl.org/dc/elements/1.1/"
   xmlns:cc="http://creativecommons.org/ns#"
   xmlns:rdf="http://www.w3.org/1999/02/22-rdf-syntax-ns#"
   xmlns:svg="http://www.w3.org/2000/svg"
   xmlns="http://www.w3.org/2000/svg"
   xmlns:sodipodi="http://sodipodi.sourceforge.net/DTD/sodipodi-0.dtd"
   xmlns:inkscape="http://www.inkscape.org/namespaces/inkscape"
   width="491.09369"
   height="473.24338"
   id="svg6202"
   version="1.1"
   inkscape:version="0.47 r22583"
   sodipodi:docname="ad1.svg"
   inkscape:export-filename="/home/sxe/Pictures/auteur/ad-creativeFreedom.png"
   inkscape:export-xdpi="299.96191"
   inkscape:export-ydpi="299.96191">
  <defs
     id="defs6204">
    <linearGradient
       id="linearGradient7302">
      <stop
         style="stop-color:#989898;stop-opacity:1;"
         offset="0"
         id="stop7304" />
      <stop
         style="stop-color:#ffffff;stop-opacity:1;"
         offset="1"
         id="stop7306" />
    </linearGradient>
    <inkscape:perspective
       sodipodi:type="inkscape:persp3d"
       inkscape:vp_x="0 : 212.5 : 1"
       inkscape:vp_y="0 : 1000 : 0"
       inkscape:vp_z="428.75 : 212.5 : 1"
       inkscape:persp3d-origin="214.375 : 141.66667 : 1"
       id="perspective6211" />
    <inkscape:perspective
       id="perspective6221"
       inkscape:persp3d-origin="0.5 : 0.33333333 : 1"
       inkscape:vp_z="1 : 0.5 : 1"
       inkscape:vp_y="0 : 1000 : 0"
       inkscape:vp_x="0 : 0.5 : 1"
       sodipodi:type="inkscape:persp3d" />
    <filter
       color-interpolation-filters="sRGB"
       inkscape:collect="always"
       id="filter5605">
      <feGaussianBlur
         inkscape:collect="always"
         stdDeviation="4.4148485"
         id="feGaussianBlur5607" />
    </filter>
    <inkscape:perspective
       id="perspective6328"
       inkscape:persp3d-origin="0.5 : 0.33333333 : 1"
       inkscape:vp_z="1 : 0.5 : 1"
       inkscape:vp_y="0 : 1000 : 0"
       inkscape:vp_x="0 : 0.5 : 1"
       sodipodi:type="inkscape:persp3d" />
    <metadata
       id="CorelCorpID_0Corel-Layer" />
    <style
       id="style6"
       type="text/css">
   
    .str0 {stroke:#1F1A17;stroke-width:0.0762}
    .fil0 {fill:#1F1A17}
    .fil1 {fill:white}
   
  </style>
    <inkscape:perspective
       id="perspective6784"
       inkscape:persp3d-origin="305.21307 : 47.464996 : 1"
       inkscape:vp_z="610.42615 : 71.197495 : 1"
       inkscape:vp_y="0 : 1000 : 0"
       inkscape:vp_x="0 : 71.197495 : 1"
       sodipodi:type="inkscape:persp3d" />
  </defs>
  <sodipodi:namedview
     pagecolor="#ffffff"
     bordercolor="#666666"
     borderopacity="1.0"
     inkscape:pageopacity="0.0"
     inkscape:pageshadow="2"
     inkscape:zoom="0.28284271"
     inkscape:cx="-93.113115"
     inkscape:cy="20.884018"
     inkscape:document-units="pt"
     inkscape:current-layer="layer1"
     id="namedview6206"
     showgrid="false"
     inkscape:window-width="1216"
     inkscape:window-height="819"
     inkscape:window-x="56"
     inkscape:window-y="53"
     inkscape:window-maximized="0" />
  <metadata
     id="metadata6208">
    <rdf:RDF>
      <cc:Work
         rdf:about="">
        <dc:format>image/svg+xml</dc:format>
        <dc:type
           rdf:resource="http://purl.org/dc/dcmitype/StillImage" />
        <dc:title></dc:title>
      </cc:Work>
    </rdf:RDF>
  </metadata>
  <g
     inkscape:label="Layer 1"
     inkscape:groupmode="layer"
     id="layer1"
     transform="translate(-60.393408,291.03273)">
    <path
       id="path5815"
       d="m 81.785408,-100.60412 352.881762,-139.86173 90.37213,228.082147 -6.45513,4.303425 -339.97156,135.558208 -6.4551,-8.60685 -90.372102,-219.4752 z"
       style="opacity:0.88399999;fill:#d0d0d0;fill-opacity:1;stroke:#000000;stroke-width:1.06504595px;stroke-linecap:butt;stroke-linejoin:miter;stroke-opacity:1" />
    <path
       style="fill:#575757;fill-opacity:1;fill-rule:nonzero;stroke:none"
       d="M 192.24111,182.18656 60.453608,-147.37465 419.6996,-291.03273 551.48711,38.528475 395.30145,100.98522 c -8.27125,-6.745143 -19.85744,-8.923693 -30.46309,-4.682623 -10.60574,4.241113 -17.49504,13.807783 -18.8348,24.396243 l -153.76245,61.48772 z m 12.3605,-25.32076 11.5104,-4.60287 c 2.3494,-0.93948 3.4844,-3.58707 2.5449,-5.93642 l -7.9945,-19.99178 c -0.9394,-2.34935 -3.587,-3.48433 -5.9364,-2.54486 l -11.5104,4.60287 c -2.3493,0.93948 -3.4844,3.58711 -2.5449,5.93646 l 7.9944,19.99178 c 0.9395,2.34935 3.5872,3.48429 5.9365,2.54482 z m 45.09506,-18.03295 11.5104,-4.60287 c 2.34935,-0.93948 3.48444,-3.58711 2.54496,-5.93646 l -7.99447,-19.99178 c -0.93947,-2.34935 -3.58716,-3.48429 -5.93651,-2.54482 l -11.51041,4.60287 c -2.34935,0.93948 -3.48433,3.58707 -2.54486,5.93642 l 7.99447,19.99178 c 0.93948,2.34935 3.58707,3.48433 5.93642,2.54486 z m 45.07614,-18.0254 11.5104,-4.60287 c 2.34935,-0.93948 3.48443,-3.58711 2.54496,-5.93646 L 300.8337,90.276337 c -0.93948,-2.34935 -3.58717,-3.48429 -5.93652,-2.54481 l -11.5104,4.60286 c -2.34935,0.93948 -3.48434,3.58707 -2.54486,5.93642 l 7.99447,19.991783 c 0.93948,2.34935 3.58707,3.48433 5.93642,2.54486 z m 45.09512,-18.03299 11.5104,-4.602873 c 2.34935,-0.93948 3.48434,-3.58707 2.54486,-5.93642 l -7.99447,-19.99178 c -0.93947,-2.34935 -3.58706,-3.48433 -5.93641,-2.54485 l -11.51041,4.60286 c -2.34935,0.93948 -3.48443,3.58711 -2.54495,5.93646 l 7.99446,19.991783 c 0.93948,2.34935 3.58717,3.48429 5.93652,2.54482 z m 45.09503,-18.032953 11.5104,-4.60287 c 2.34935,-0.93948 3.48433,-3.58707 2.54486,-5.93642 l -7.99447,-19.99178 c -0.93948,-2.34935 -3.58707,-3.48433 -5.93642,-2.54485 l -11.5104,4.60286 c -2.34935,0.93948 -3.48434,3.58707 -2.54486,5.93642 l 7.99447,19.99178 c 0.93947,2.34935 3.58707,3.48433 5.93642,2.54486 z m 45.09502,-18.03295 11.5104,-4.60287 c 2.34935,-0.93948 3.48444,-3.58711 2.54496,-5.93646 l -7.99447,-19.991776 c -0.93947,-2.34935 -3.58716,-3.484296 -5.93651,-2.544819 l -11.51041,4.602869 c -2.34935,0.939477 -3.48433,3.587067 -2.54485,5.936416 l 7.99446,19.99178 c 0.93948,2.34935 3.58707,3.48433 5.93642,2.54486 z m 45.07614,-18.0254 11.5104,-4.60287 c 2.34935,-0.939476 3.48443,-3.587106 2.54496,-5.936456 l -7.99447,-19.991777 c -0.93948,-2.349351 -3.58717,-3.484296 -5.93652,-2.544819 l -11.5104,4.602869 c -2.34935,0.939476 -3.48433,3.587067 -2.54486,5.936417 l 7.99447,19.991776 c 0.93948,2.34935 3.58707,3.48434 5.93642,2.54486 z m 45.09512,-18.03299 11.5104,-4.602869 c 2.34935,-0.939477 3.48434,-3.587067 2.54486,-5.936418 L 526.29003,0.11910301 C 525.35056,-2.230247 522.70297,-3.365232 520.35362,-2.425755 l -11.5104,4.602869 c -2.34935,0.939477 -3.48444,3.587107 -2.54496,5.936457 l 7.99447,19.991777 c 0.93947,2.34935 3.58716,3.484296 5.93651,2.544819 z M 188.00621,124.15171 514.53836,-6.424538 c 4.6987,-1.878953 6.96873,-7.174273 5.08979,-11.872934 L 436.53418,-226.09068 c -1.87893,-4.69865 -7.17426,-6.96869 -11.87296,-5.08974 L 98.129008,-100.60418 c -4.6986,1.878913 -6.9686,7.174243 -5.0897,11.872894 L 176.13331,119.06193 c 1.8789,4.69866 7.1743,6.96869 11.8729,5.08978 z m -90.118702,-232.3889 11.510402,-4.60287 c 2.3494,-0.93948 3.4843,-3.58707 2.5449,-5.93642 l -7.9945,-19.99178 c -0.9395,-2.34935 -3.5871,-3.48443 -5.936502,-2.54496 l -11.5104,4.60287 c -2.3493,0.93948 -3.4844,3.58721 -2.5449,5.93656 l 7.9945,19.99178 c 0.9395,2.34935 3.5872,3.48429 5.9365,2.54482 z m 45.095002,-18.03296 11.5104,-4.60286 c 2.3494,-0.93948 3.4845,-3.58711 2.545,-5.93646 l -7.9945,-19.99178 c -0.9395,-2.34935 -3.5872,-3.48439 -5.9365,-2.54491 l -11.5104,4.60286 c -2.3494,0.93948 -3.4843,3.58717 -2.5449,5.93652 l 7.9945,19.99178 c 0.9395,2.34935 3.5871,3.48433 5.9364,2.54485 z m 45.0762,-18.02539 11.5104,-4.60287 c 2.3493,-0.93948 3.4844,-3.58711 2.5449,-5.93646 l -7.9944,-19.99177 c -0.9395,-2.34935 -3.5872,-3.4844 -5.9366,-2.54492 l -11.5104,4.60287 c -2.3494,0.93947 -3.4843,3.58716 -2.5448,5.93651 l 7.9944,19.99178 c 0.9395,2.34935 3.5871,3.48433 5.9365,2.54486 z m 45.09499,-18.03295 11.5105,-4.60291 c 2.34925,-0.93944 3.48434,-3.58707 2.54486,-5.93642 l -7.99447,-19.99177 c -0.93947,-2.34935 -3.5872,-3.4844 -5.93645,-2.54496 l -11.5105,4.60291 c -2.34923,0.93943 -3.48433,3.58716 -2.54483,5.93651 l 7.99447,19.99178 c 0.93948,2.34935 3.58717,3.4843 5.93642,2.54486 z m 45.09513,-18.03299 11.5104,-4.60287 c 2.34935,-0.93948 3.48433,-3.58707 2.54486,-5.93642 l -7.99447,-19.99177 c -0.93948,-2.34935 -3.58711,-3.48444 -5.93646,-2.54496 l -11.5104,4.60287 c -2.34935,0.93947 -3.4844,3.5872 -2.54492,5.93655 l 7.99447,19.99178 c 0.93948,2.34935 3.58717,3.4843 5.93652,2.54482 z m 45.09502,-18.03295 11.5104,-4.60287 c 2.34935,-0.93948 3.48444,-3.58711 2.54496,-5.93646 l -7.99447,-19.99177 c -0.93947,-2.34935 -3.5872,-3.4844 -5.93655,-2.54492 l -11.51041,4.60287 c -2.34935,0.93947 -3.48429,3.58716 -2.54481,5.93651 l 7.99446,19.99178 c 0.93948,2.34935 3.58707,3.48434 5.93642,2.54486 z m 45.07614,-18.0254 11.5104,-4.60287 c 2.34935,-0.93947 3.48443,-3.5871 2.54496,-5.93645 l -7.99447,-19.99178 c -0.93948,-2.34935 -3.58721,-3.4844 -5.93656,-2.54492 l -11.5104,4.60287 c -2.34935,0.93948 -3.48429,3.58717 -2.54482,5.93652 l 7.99447,19.99177 c 0.93948,2.34935 3.58707,3.48434 5.93642,2.54486 z m 45.09512,-18.03299 11.5104,-4.60287 c 2.34935,-0.93947 3.48434,-3.58706 2.54486,-5.93641 l -7.99447,-19.99178 c -0.93947,-2.34935 -3.5871,-3.48444 -5.93645,-2.54496 l -11.5104,4.60287 c -2.34935,0.93948 -3.4844,3.58721 -2.54492,5.93656 l 7.99447,19.99177 c 0.93947,2.34935 3.58716,3.4843 5.93651,2.54482 z"
       id="path5819" />
    <path
       id="path5821"
       d="M 60.393408,-147.35057 192.18091,182.21065 551.42688,38.552558 419.63938,-291.00865 263.45372,-228.55191 c -1.33975,10.58849 -8.22914,20.15521 -18.83479,24.39628 -10.60575,4.24111 -22.19184,2.06251 -30.46312,-4.68266 l -153.762402,61.48772 z m 26.4114,9.81631 11.5104,-4.60287 c 2.349302,-0.93948 4.997002,0.19556 5.936402,2.5449 l 7.9945,19.99176 c 0.9395,2.34934 -0.1955,4.99698 -2.5449,5.93646 l -11.510402,4.60287 c -2.3493,0.93947 -4.997,-0.19552 -5.9365,-2.54486 l -7.9944,-19.99176 c -0.9395,-2.34934 0.1955,-4.99703 2.5449,-5.9365 z m 45.095002,-18.03295 11.5104,-4.60287 c 2.3494,-0.93948 4.9971,0.19553 5.9366,2.54487 l 7.9944,19.99175 c 0.9395,2.34934 -0.1956,4.99702 -2.5449,5.9365 l -11.5104,4.60287 c -2.3494,0.93947 -4.997,-0.19556 -5.9365,-2.5449 l -7.9944,-19.99176 c -0.9395,-2.34934 0.1955,-4.99699 2.5448,-5.93646 z m 45.0762,-18.0254 11.5104,-4.60287 c 2.3493,-0.93948 4.997,0.19553 5.9365,2.54487 l 7.9944,19.99175 c 0.9395,2.34935 -0.1955,4.99702 -2.5449,5.9365 l -11.5104,4.60287 c -2.3493,0.93948 -4.997,-0.19556 -5.9364,-2.5449 l -7.9945,-19.99175 c -0.9395,-2.34934 0.1955,-4.99699 2.5449,-5.93647 z m 45.09507,-18.03299 11.51041,-4.60287 c 2.34935,-0.93947 4.99696,0.19557 5.93643,2.54491 l 7.99446,19.99176 c 0.93948,2.34934 -0.19549,4.99698 -2.54484,5.93645 l -11.5104,4.60287 c -2.34935,0.93948 -4.99706,-0.19551 -5.93653,-2.54486 l -7.9945,-19.99175 c -0.9394,-2.34934 0.1956,-4.99703 2.54497,-5.93651 z m 45.09503,-18.03295 11.5104,-4.60287 c 2.34935,-0.93948 4.99697,0.19557 5.93644,2.54491 l 7.99446,19.99176 c 0.93947,2.34934 -0.19549,4.99698 -2.54484,5.93645 l -11.51041,4.60287 c -2.34935,0.93948 -4.99696,-0.19555 -5.93643,-2.5449 l -7.99446,-19.99175 c -0.93947,-2.34934 0.19549,-4.99699 2.54484,-5.93647 z m 45.09502,-18.03295 11.51041,-4.60287 c 2.34935,-0.93948 4.99706,0.19553 5.93653,2.54487 l 7.99446,19.99176 c 0.93948,2.34934 -0.19559,4.99702 -2.54494,5.93649 l -11.5104,4.60287 c -2.34935,0.93948 -4.99696,-0.19556 -5.93643,-2.5449 l -7.99446,-19.99175 c -0.93948,-2.34934 0.19548,-4.99699 2.54483,-5.93647 z m 45.07614,-18.0254 11.5104,-4.60287 c 2.34935,-0.93947 4.99707,0.19553 5.93654,2.54487 l 7.99446,19.99176 c 0.93947,2.34934 -0.19559,4.99702 -2.54494,5.9365 l -11.5104,4.60287 c -2.34935,0.93947 -4.99696,-0.19556 -5.93644,-2.5449 l -7.99446,-19.99176 c -0.93947,-2.34934 0.19549,-4.99699 2.54484,-5.93647 z m 45.09513,-18.03299 11.5104,-4.60287 c 2.34935,-0.93947 4.99696,0.19557 5.93644,2.54491 l 7.99445,19.99176 c 0.93948,2.34934 -0.19549,4.99698 -2.54484,5.93646 l -11.5104,4.60287 c -2.34935,0.93947 -4.99706,-0.19552 -5.93653,-2.54486 l -7.99446,-19.99176 c -0.93947,-2.34934 0.19559,-4.99703 2.54494,-5.93651 z M 97.342008,-102.39752 423.87423,-232.97376 c 4.6987,-1.87895 9.99402,0.39108 11.87297,5.08976 l 83.09397,207.793204 c 1.87893,4.698652 -0.3911,9.993971 -5.0898,11.872924 L 187.21921,122.35837 c -4.6986,1.87892 -9.994,-0.39111 -11.8729,-5.08976 L 92.252308,-90.524609 c -1.8789,-4.698681 0.3911,-9.994001 5.0897,-11.872911 z m 94.965302,230.45079 11.5104,-4.60287 c 2.3494,-0.93947 4.997,0.19551 5.9364,2.54486 l 7.9945,19.99178 c 0.9395,2.34935 -0.1955,4.99704 -2.5448,5.93652 l -11.5104,4.60287 c -2.3494,0.93947 -4.9971,-0.19557 -5.9366,-2.54492 l -7.9944,-19.99178 c -0.9395,-2.34935 0.1956,-4.99698 2.5449,-5.93646 z m 45.09505,-18.03295 11.5104,-4.60287 c 2.34935,-0.93947 4.99704,0.19547 5.93652,2.54482 l 7.99447,19.99178 c 0.93947,2.34935 -0.19557,4.99708 -2.54492,5.93656 l -11.5104,4.60287 c -2.34936,0.93947 -4.99699,-0.19561 -5.93646,-2.54496 l -7.99447,-19.99178 c -0.93948,-2.34935 0.19551,-4.99694 2.54486,-5.93642 z m 45.07614,-18.025393 11.5104,-4.60287 c 2.34935,-0.93948 4.99704,0.19547 5.93651,2.54482 l 7.99447,19.991773 c 0.93948,2.34935 -0.19557,4.99708 -2.54492,5.93656 l -11.5104,4.60287 c -2.34935,0.93948 -4.99698,-0.19561 -5.93645,-2.54496 l -7.99447,-19.991783 c -0.93948,-2.34935 0.19551,-4.99694 2.54486,-5.93641 z m 45.09502,-18.03295 11.5105,-4.60291 c 2.34925,-0.93944 4.99694,0.19551 5.93642,2.54486 l 7.99447,19.99177 c 0.93947,2.34935 -0.19557,4.99708 -2.54482,5.93652 l -11.5105,4.602913 c -2.34925,0.93944 -4.99698,-0.19561 -5.93646,-2.544963 l -7.99447,-19.99178 c -0.93947,-2.34935 0.19561,-4.99698 2.54486,-5.93641 z m 45.09513,-18.03299 11.5104,-4.60287 c 2.34935,-0.93948 4.99694,0.19551 5.93641,2.54486 l 7.99447,19.99177 c 0.93948,2.34935 -0.19547,4.99704 -2.54482,5.93652 l -11.5104,4.60287 c -2.34935,0.93947 -4.99708,-0.19557 -5.93655,-2.54492 l -7.99447,-19.99178 c -0.93948,-2.34935 0.1956,-4.99698 2.54496,-5.93645 z m 45.09502,-18.032954 11.5104,-4.602869 c 2.34935,-0.939477 4.99704,0.195468 5.93652,2.544819 l 7.99447,19.991774 c 0.93947,2.34935 -0.19557,4.99708 -2.54492,5.93656 l -11.5104,4.60287 c -2.34935,0.93947 -4.99698,-0.19561 -5.93646,-2.54496 l -7.99447,-19.99178 c -0.93947,-2.349347 0.19551,-4.996938 2.54486,-5.936414 z m 45.07614,-18.025397 11.5104,-4.60287 c 2.34935,-0.939476 4.99704,0.195469 5.93652,2.544819 l 7.99446,19.991778 c 0.93948,2.34935 -0.19556,4.997079 -2.54491,5.936554 l -11.51041,4.60287 c -2.34935,0.93948 -4.99698,-0.19561 -5.93645,-2.54496 l -7.99447,-19.991774 c -0.93948,-2.34935 0.19551,-4.996941 2.54486,-5.936417 z m 45.09512,-18.03299 11.5104,-4.60287 c 2.34935,-0.939476 4.99694,0.195509 5.93642,2.54485901 l 7.99447,19.99177699 c 0.93947,2.34935 -0.19547,4.99704 -2.54482,5.936516 l -11.5104,4.60287 c -2.34935,0.939476 -4.99708,-0.195568 -5.93656,-2.544918 L 505.38997,7.774103 c -0.93947,-2.34935 0.19561,-4.996981 2.54496,-5.936457 z"
       style="fill:#575757;fill-opacity:1;fill-rule:nonzero;stroke:none" />
    <path
       style="fill:#2c2c2c;fill-opacity:1;fill-rule:nonzero;stroke:none"
       d="m 69.841408,-123.72394 5.3296,13.32785 15.1453,-6.05639 -5.3297,-13.32785 -15.1452,6.05639 z m 35.137002,-14.05086 5.3296,13.32785 25.1034,-10.03852 -5.3297,-13.32785 -25.1033,10.03852 z m 45.0951,-18.03299 5.3297,13.32785 25.0843,-10.03093 -5.3296,-13.32785 -25.0844,10.03093 z m 45.0762,-18.02539 5.3296,13.32784 25.10325,-10.03848 -5.32965,-13.32785 -25.1032,10.03849 z m 45.09498,-18.03295 5.32964,13.32784 25.10335,-10.03852 -5.32964,-13.32785 -25.10335,10.03853 z m 45.09503,-18.03295 5.32964,13.32784 25.10335,-10.03852 -5.32965,-13.32785 -25.10334,10.03853 z m 45.09512,-18.03299 5.32964,13.32784 25.08436,-10.03093 -5.32964,-13.32784 -25.08436,10.03093 z m 45.07614,-18.0254 5.32964,13.32785 25.10325,-10.03849 -5.32965,-13.32784 -25.10324,10.03848 z m 45.09502,-18.03295 5.32965,13.32785 8.48137,-3.3916 -5.32964,-13.32785 -8.48138,3.3916 z"
       id="path5823" />
    <path
       style="fill:#2c2c2c;fill-opacity:1;fill-rule:nonzero;stroke:none"
       d="m 175.91191,141.52665 5.481,13.70647 14.5394,-5.81414 -5.481,-13.70647 -14.5394,5.81414 z m 34.5312,-13.80861 5.481,13.70647 25.10336,-10.03852 -5.48105,-13.70647 -25.10331,10.03852 z m 45.09509,-18.03299 5.48105,13.70647 25.08436,-10.03093 -5.48105,-13.706473 -25.08436,10.030933 z m 45.07613,-18.025403 5.48105,13.706483 25.10325,-10.038493 -5.48105,-13.70647 -25.10325,10.03848 z m 45.09503,-18.03295 5.48105,13.70648 25.10325,-10.03849 -5.48105,-13.70647 -25.10325,10.03848 z m 45.09502,-18.03295 5.48105,13.70647 25.10335,-10.03852 -5.48105,-13.70647 -25.10335,10.03852 z m 45.09513,-18.032987 5.48105,13.706467 25.08436,-10.030925 -5.48105,-13.706471 -25.08436,10.030929 z m 45.07613,-18.025397 5.48105,13.706472 25.10325,-10.038483 -5.48105,-13.706471 -25.10325,10.038482 z m 45.09503,-18.03295 5.48105,13.706471 9.08718,-3.633852 -5.48105,-13.706472 -9.08718,3.633853 z"
       id="path5825" />
    <path
       style="fill:#2c2c2c;fill-opacity:1;fill-rule:nonzero;stroke:none"
       d="m 188.99081,165.61181 6.1624,15.41027 8.557,-3.42186 -6.1624,-15.41026 -8.557,3.42185 z m 12.4191,-4.96625 6.1624,15.41026 5.5658,-2.22572 -6.1623,-15.41026 -5.5659,2.22572 z m 83.10975,-33.23458 6.16237,15.41027 8.55703,-3.42186 -6.16237,-15.41026 -8.55703,3.42185 z m 12.41911,-4.96625 6.16237,15.41026 5.56588,-2.22572 -6.16238,-15.41026 -5.56587,2.22572 z m 8.7464,-3.49758 6.16238,15.41026 5.56587,-2.22572 -6.16237,-15.41026 -5.56588,2.22572 z m 115.10412,-46.028733 6.16238,15.41026 5.56587,-2.22572 -6.16237,-15.41027 -5.56588,2.22573 z m 8.48128,-3.39156 6.16237,15.41026 5.56598,-2.22576 -6.16238,-15.41026 -5.56597,2.22576 z m 8.17847,-3.27047 6.16238,15.41026 8.55712,-3.42189 -6.16237,-15.41026 -8.55713,3.42189 z m 20.90048,-8.35785 6.16238,15.41026 5.56588,-2.22572 -6.16238,-15.41027 -5.56588,2.22573 z m 8.48138,-3.3916 6.16238,15.41026 5.56587,-2.22572 -6.16238,-15.41026 -5.56587,2.22572 z m 8.48137,-3.3916 6.16238,15.41027 5.56588,-2.22573 -6.16238,-15.41026 -5.56588,2.22572 z m 47.25322,-18.895982 6.16238,15.410262 5.56587,-2.22573 -6.16237,-15.410258 -5.56588,2.225726 z m 9.12506,-3.648999 6.16238,15.410261 8.55712,-3.421889 -6.16237,-15.410262 -8.55713,3.42189 z"
       id="path5827" />
    <path
       style="font-size:40px;font-style:normal;font-variant:normal;font-weight:bold;font-stretch:normal;text-align:start;line-height:125%;writing-mode:lr-tb;text-anchor:start;fill:#000000;fill-opacity:1;stroke:none;font-family:Bitstream Vera Sans Mono;-inkscape-font-specification:Bitstream Vera Sans Mono Bold"
       d="m 261.96104,142.84216 c 1.02381,-0.3142 1.23369,-1.78892 0.4997,-2.49885 -0.72622,-0.82302 -2.31197,-0.46637 -2.52761,0.64199 -0.25352,0.97061 0.58079,2.17379 1.64495,1.96653 0.13172,-0.0194 0.26097,-0.0562 0.383,-0.10957 m 1.66987,0.23233 c 1.36299,-0.16733 2.50845,1.16309 2.47547,2.46751 0.0163,1.10233 -0.76276,2.08798 -1.76112,2.49249 -1.13571,0.59571 -2.75147,0.61084 -3.60753,-0.47146 -0.76516,-0.87365 -0.92982,-2.38258 -0.0277,-3.22256 0.0272,-0.3886 -0.85243,-0.0151 -1.10186,-0.38181 -1.63771,-0.79301 -2.12884,-3.322 -0.7641,-4.58499 1.11431,-0.94754 2.77746,-1.56731 4.17648,-0.89013 1.39367,0.74608 2.07623,2.77766 1.09632,4.10607 -0.13903,0.18269 -0.3033,0.34588 -0.48595,0.48488 z m 0.55965,1.958 c -0.25907,-1.00411 -1.81974,-1.10334 -2.29151,-0.21614 -0.50589,0.82171 0.20912,2.12467 1.21618,1.95733 0.81054,-0.0489 1.4853,-0.97844 1.07533,-1.74119 z m -8.5692,0.4312 c -0.36575,-0.91464 -0.73151,-1.82928 -1.09726,-2.74392 -0.79302,0.39626 -1.85211,0.50262 -2.33256,1.33686 -0.25888,0.76962 0.17801,1.72475 0.91407,2.04488 0.89542,0.24275 1.69664,-0.38884 2.51545,-0.6377 z m 1.44482,3.61308 c -0.421,-0.62139 -0.31688,-1.54567 -0.97378,-2.00459 -0.69177,0.11937 -1.59894,0.37672 -2.00707,1.04818 -0.338,0.78519 0.47801,1.88523 1.34643,1.57398 0.56713,-0.14305 1.08552,-0.42262 1.63427,-0.61796 z m 2.35267,0.75143 c -1.63327,0.55792 -3.1692,1.5245 -4.92742,1.62826 -0.9645,-0.01 -1.85709,-0.68017 -2.13925,-1.60232 -0.35219,-0.85204 -0.13081,-2.00973 0.74947,-2.44594 0.13807,-0.28978 -0.69054,0.12817 -0.93092,-0.0613 -0.98563,-0.15827 -1.70855,-0.99971 -1.96751,-1.92781 -0.32358,-0.91533 -0.14573,-2.08119 0.70445,-2.6523 1.28422,-1.06998 2.98696,-1.34976 4.43885,-2.10998 0.90226,0.0525 0.6994,1.31758 1.15781,1.88306 0.97151,2.42945 1.94301,4.8589 2.91452,7.28835 z"
       id="path5829" />
    <path
       style="font-size:40px;font-style:normal;font-variant:normal;font-weight:bold;font-stretch:normal;text-align:start;line-height:125%;writing-mode:lr-tb;text-anchor:start;fill:#000000;fill-opacity:1;stroke:none;font-family:Bitstream Vera Sans Mono;-inkscape-font-specification:Bitstream Vera Sans Mono Bold"
       d="m 397.60063,93.853867 c -1.89331,1.19241 -2.52809,-1.86389 -4.11583,-2.08306 -2.07296,0.29454 0.2582,3.80094 -1.85822,3.77311 -1.66005,-0.70803 -1.23167,-2.72551 -1.80581,-4.09673 -0.53359,-1.30566 -1.47055,-2.50736 -1.50377,-3.96987 1.03292,-1.71185 3.06387,0.49021 2.58578,1.8266 1.27125,1.6794 3.54207,-1.15857 1.56351,-1.98299 -0.91939,-1.98849 2.53494,-2.67231 2.417,-0.43327 0.70472,1.98602 1.32955,4.00605 2.29128,5.88756 0.14351,0.35888 0.2871,0.71795 0.43061,1.07683 z m -17.32059,-3.8244 c 1.92452,-0.76959 3.84903,-1.53918 5.77345,-2.30873 1.23547,3.08955 2.47091,6.179 3.70638,9.26855 -1.92434,0.76975 -3.84893,1.53914 -5.77345,2.30873 -0.90581,-2.00413 2.12341,-2.35783 2.66662,-3.7299 -0.1876,-2.40845 -3.55464,0.59076 -3.68502,-1.28597 0.28843,-1.48766 3.53881,-1.22953 2.09162,-3.16044 -1.14336,-1.46775 -2.54357,0.0169 -3.75024,0.11049 -0.60089,-0.0418 -1.24588,-0.53803 -1.02936,-1.20273 z m -1.35352,2.41347 c -1.83423,0.20137 -1.8946,2.54908 -1.34619,3.88953 0.39886,1.74896 2.6617,1.72329 3.27236,3.18153 0.46827,2.058783 -2.72955,2.369783 -3.36523,0.658523 -1.01196,-1.754413 -0.63914,-4.350263 -2.59236,-5.513203 -2.10781,0.15202 -1.81069,-2.94292 0.18917,-2.67072 1.13834,-0.51486 3.43962,-1.4007 3.84225,0.45434 z m -8.33146,6.82394 c -0.10577,1.725023 -1.91743,-1.03158 -0.41967,-0.3909 0.14871,0.10513 0.36608,0.19176 0.41967,0.3909 z m 0.53357,3.567073 c 1.15937,-1.5844 -0.15221,-3.450133 -0.24456,-5.147413 -0.56425,-1.66344 -3.68609,-0.52161 -2.89137,1.11722 0.8797,1.425113 1.08286,3.758053 3.13589,4.030093 z m 1.75714,-4.483103 c 1.02491,1.821503 1.15319,4.646423 -0.78469,5.912983 -1.75104,0.90623 -4.16455,-0.18724 -4.67476,-2.08242 -1.21962,-1.94127 -1.97355,-4.610293 -0.66207,-6.695753 1.49515,-1.6425 4.52829,-0.94891 5.26982,1.11655 0.33699,0.55531 0.60274,1.14988 0.8517,1.74864 z m -9.93902,3.974503 c -0.10568,1.72498 -1.91734,-1.03162 -0.41954,-0.39084 0.14867,0.10503 0.36604,0.19166 0.41954,0.39084 z m 0.53356,3.56707 c 1.15947,-1.58444 -0.15211,-3.45017 -0.24456,-5.14742 -0.56425,-1.663433 -3.68609,-0.5216 -2.89127,1.11719 0.8797,1.42511 1.08286,3.75805 3.13579,4.03013 z m 1.75724,-4.48314 c 1.02481,1.82154 1.15309,4.64646 -0.78478,5.91302 -1.75095,0.90619 -4.16445,-0.18728 -4.67467,-2.08246 -1.21972,-1.94123 -1.97355,-4.61029 -0.66207,-6.695753 1.49505,-1.64246 4.52829,-0.94891 5.26972,1.11659 0.33709,0.555263 0.60274,1.149883 0.8518,1.748603 z"
       id="path5831" />
    <path
       style="font-size:40px;font-style:normal;font-variant:normal;font-weight:bold;font-stretch:normal;text-align:start;line-height:125%;writing-mode:lr-tb;text-anchor:start;fill:#000000;fill-opacity:1;stroke:none;font-family:Bitstream Vera Sans Mono;-inkscape-font-specification:Bitstream Vera Sans Mono Bold"
       d="m 230.64011,143.06461 c 0.92516,-1.13171 2.56252,-1.78899 3.97835,-1.25595 1.24871,0.54825 1.92912,1.90267 2.1087,3.19734 0.13617,1.1239 -0.427,2.31722 -1.44694,2.84334 -0.68202,0.40361 -1.48731,0.5787 -2.2759,0.54201 -0.49366,-0.18352 -0.72713,-1.04072 -0.60434,-1.35066 0.87203,0.17595 1.94722,0.0267 2.45742,-0.78712 0.41336,-0.72723 0.13504,-1.62487 -0.25853,-2.29841 -0.33465,-0.57299 -1.00171,-0.97726 -1.67601,-0.82198 -0.55702,0.0981 -1.05922,0.42357 -1.4133,0.86133 -0.24543,0.69656 -0.59929,-0.0237 -0.65944,-0.4056 -0.0699,-0.17484 -0.13979,-0.34958 -0.20971,-0.52442 z m -6.499,2.59888 c 0.92506,-1.13168 2.56241,-1.78896 3.97824,-1.25592 1.24872,0.54825 1.92913,1.90268 2.1087,3.19734 0.13618,1.12391 -0.427,2.31722 -1.44693,2.84334 -0.68203,0.40361 -1.48722,0.57866 -2.2759,0.54202 -0.49367,-0.18353 -0.72714,-1.04072 -0.60435,-1.35066 0.87193,0.17598 1.94712,0.0267 2.45742,-0.78712 0.41326,-0.7272 0.13494,-1.62484 -0.25853,-2.29842 -0.33465,-0.57298 -1.0018,-0.97722 -1.67601,-0.82197 -0.55712,0.0981 -1.05932,0.42361 -1.4134,0.86137 -0.24542,0.69655 -0.59929,-0.0237 -0.65944,-0.4056 -0.0699,-0.17484 -0.13979,-0.34958 -0.2097,-0.52442 z"
       id="path5833" />
    <path
       id="path5835"
       d="m 326.35836,104.78805 c 0.92506,-1.13167 2.56242,-1.78895 3.97825,-1.25591 1.24871,0.54825 1.92912,1.90267 2.10869,3.19734 0.13618,1.1239 -0.427,2.31722 -1.44693,2.84334 -0.68202,0.40361 -1.48722,0.57866 -2.2759,0.54201 -0.49366,-0.18352 -0.72713,-1.04072 -0.60434,-1.35065 0.87203,0.17594 1.94722,0.0267 2.45742,-0.78713 0.41336,-0.72723 0.13504,-1.62487 -0.25853,-2.29841 -0.33466,-0.57299 -1.00171,-0.97726 -1.67602,-0.82198 -0.55702,0.0981 -1.05922,0.42357 -1.41329,0.86133 -0.24543,0.69656 -0.5993,-0.0237 -0.65944,-0.4056 -0.0699,-0.17484 -0.13979,-0.34958 -0.20971,-0.52442 z m -6.49911,2.59892 c 0.92516,-1.13171 2.56242,-1.78896 3.97825,-1.25592 1.24872,0.54825 1.92912,1.90268 2.1087,3.19734 0.13617,1.12391 -0.427,2.31722 -1.44694,2.84334 -0.68202,0.40361 -1.48721,0.57866 -2.27589,0.54202 -0.49367,-0.18353 -0.72714,-1.04072 -0.60435,-1.35066 0.87193,0.17598 1.94712,0.0267 2.45742,-0.78712 0.41326,-0.7272 0.13494,-1.62484 -0.25853,-2.29842 -0.33465,-0.57298 -1.00181,-0.97722 -1.67601,-0.82197 -0.55712,0.0981 -1.05932,0.42361 -1.4134,0.86137 -0.24543,0.69655 -0.59929,-0.0237 -0.65944,-0.4056 -0.0699,-0.17484 -0.13979,-0.34958 -0.20971,-0.52442 z"
       style="font-size:40px;font-style:normal;font-variant:normal;font-weight:bold;font-stretch:normal;text-align:start;line-height:125%;writing-mode:lr-tb;text-anchor:start;fill:#000000;fill-opacity:1;stroke:none;font-family:Bitstream Vera Sans Mono;-inkscape-font-specification:Bitstream Vera Sans Mono Bold" />
    <path
       id="path5837"
       d="m 69.555808,-133.05935 -6.1624,-15.41026 8.5571,-3.42185 6.1624,15.41026 -8.5571,3.42185 z m 12.4191,-4.96625 -6.1623,-15.41026 5.5658,-2.22572 6.1624,15.41026 -5.5659,2.22572 z m 83.109802,-33.23457 -6.1624,-15.41027 8.557,-3.42185 6.1624,15.41027 -8.557,3.42185 z m 12.4191,-4.96625 -6.1624,-15.41027 5.5659,-2.22572 6.1624,15.41026 -5.5659,2.22573 z m 8.7464,-3.49758 -6.1624,-15.41027 5.5659,-2.22572 6.1624,15.41026 -5.5659,2.22573 z m 115.10413,-46.02874 -6.16238,-15.41026 5.56588,-2.22572 6.16237,15.41026 -5.56587,2.22572 z m 8.48128,-3.39156 -6.16238,-15.41026 5.56597,-2.22576 6.16238,15.41026 -5.56597,2.22576 z m 8.17847,-3.27047 -6.16238,-15.41026 8.55713,-3.42189 6.16237,15.41026 -8.55712,3.42189 z m 20.90048,-8.35785 -6.16237,-15.41026 5.56587,-2.22572 6.16238,15.41026 -5.56588,2.22572 z m 8.48138,-3.39159 -6.16238,-15.41027 5.56588,-2.22572 6.16237,15.41026 -5.56587,2.22573 z m 8.48137,-3.3916 -6.16237,-15.41027 5.56587,-2.22572 6.16238,15.41026 -5.56588,2.22573 z m 47.25322,-18.89599 -6.16237,-15.41026 5.56587,-2.22573 6.16238,15.41027 -5.56588,2.22572 z m 9.12506,-3.649 -6.16238,-15.41026 8.55713,-3.42189 6.16237,15.41026 -8.55712,3.42189 z"
       style="fill:#2c2c2c;fill-opacity:1;fill-rule:nonzero;stroke:none" />
    <path
       id="path5839"
       d="m 138.10611,-166.88203 c 0.9582,-0.47836 2.127,0.44502 2.0849,1.46529 0.042,1.09684 -1.3529,1.93193 -2.2733,1.27786 -0.8529,-0.52818 -1.0782,-1.97488 -0.1646,-2.55852 0.1088,-0.0768 0.2278,-0.13925 0.353,-0.18473 m 1.0492,-1.31966 c 1.1026,-0.81862 1.0148,-2.57201 0.091,-3.49403 -0.7482,-0.80962 -1.9921,-0.98633 -2.9941,-0.59092 -1.2333,0.35164 -2.414,1.45477 -2.2878,2.82892 0.048,1.16034 0.9694,2.36675 2.202,2.35311 0.2876,0.26269 -0.607,0.59866 -0.5348,1.03628 -0.6394,1.70359 0.7487,3.8739 2.608,3.84763 1.4604,-0.082 3.0923,-0.77994 3.6387,-2.23505 0.4949,-1.50131 -0.4115,-3.44336 -2.0372,-3.72984 -0.2267,-0.0365 -0.4582,-0.0414 -0.6863,-0.0161 z m -0.9447,-1.80401 c 0.5047,0.90587 -0.5572,2.05385 -1.5107,1.73657 -0.9329,-0.24632 -1.3135,-1.68303 -0.4687,-2.25622 0.6208,-0.52342 1.7504,-0.31547 1.9794,0.51965 z m -6.5038,5.59628 c 0.3658,0.91464 0.7315,1.82928 1.0973,2.74392 -0.8476,0.2598 -1.688,0.91302 -2.6112,0.64008 -0.7182,-0.3789 -1.0603,-1.37192 -0.7479,-2.11131 0.4811,-0.79322 1.4969,-0.88823 2.2615,-1.27257 z m -1.4448,-3.61308 c 0.1235,0.74034 0.8363,1.33798 0.6769,2.12331 -0.5833,0.39053 -1.4178,0.82964 -2.1764,0.62474 -0.7862,-0.33564 -0.9537,-1.69502 -0.1101,-2.06838 0.5094,-0.28743 1.0776,-0.44239 1.6098,-0.67927 z m 1.1859,-2.16644 c -1.5677,0.72208 -3.3466,1.08107 -4.6915,2.21824 -0.6918,0.67222 -0.8761,1.77311 -0.4446,2.63555 0.3324,0.85995 1.291,1.54579 2.2293,1.25476 0.2998,0.11467 -0.5885,0.3833 -0.6319,0.68629 -0.6048,0.79424 -0.5482,1.90214 -0.096,2.75289 0.3968,0.88606 1.3295,1.60783 2.339,1.43525 1.6679,-0.11053 3.0941,-1.08196 4.6698,-1.53245 0.6173,-0.66013 -0.4019,-1.43654 -0.4598,-2.16217 -0.9715,-2.42946 -1.943,-4.85891 -2.9145,-7.28836 z"
       style="font-size:40px;font-style:normal;font-variant:normal;font-weight:bold;font-stretch:normal;text-align:start;line-height:125%;writing-mode:lr-tb;text-anchor:start;fill:#000000;fill-opacity:1;stroke:none;font-family:Bitstream Vera Sans Mono;-inkscape-font-specification:Bitstream Vera Sans Mono Bold" />
    <path
       id="path5841"
       d="m 270.12415,-224.92675 c -2.19346,0.44183 -0.54584,3.09312 -1.54468,4.34663 -1.70447,1.21601 -2.4338,-2.93095 -3.94747,-1.45149 -0.71412,1.65744 0.98721,2.82326 1.51686,4.21228 0.51381,1.31357 0.66379,2.82997 1.64814,3.91213 1.92847,0.52763 1.88107,-2.46762 0.61335,-3.10588 -0.23725,-2.09289 3.36427,-1.60319 2.49971,0.35815 0.7052,2.07414 3.67858,0.18761 2.0493,-1.35275 -0.85898,-1.92433 -1.79927,-3.81821 -2.40005,-5.84406 -0.14351,-0.35888 -0.2871,-0.71795 -0.43061,-1.07683 z m -9.90783,14.7127 c 1.92452,-0.76959 3.84903,-1.53918 5.77345,-2.30873 -1.23547,-3.08955 -2.47091,-6.179 -3.70638,-9.26854 -1.92449,0.76935 -3.84893,1.53914 -5.77345,2.30873 0.72583,2.0761 3.16369,0.24358 4.50318,0.86279 1.52479,1.87372 -2.98186,2.0231 -1.78226,3.47226 1.23467,0.87859 3.41084,-1.54954 3.69408,0.84681 0.18393,1.85142 -1.85391,1.74158 -2.79238,2.50583 -0.40641,0.44457 -0.53138,1.24873 0.0838,1.58085 z m -2.64443,-0.81473 c -1.46734,1.11889 -3.12985,-0.53987 -3.6569,-1.88885 -0.91705,-1.54174 0.73956,-3.08341 0.17636,-4.56064 -1.0804,-1.81399 -3.61094,0.1657 -2.8914,1.84343 0.47676,1.96843 2.53666,3.59147 1.92386,5.78053 -1.63145,1.34326 0.71775,3.37997 1.97852,1.80389 1.17946,-0.41201 3.45702,-1.35719 2.46956,-2.97836 z m -10.73945,0.80228 c -1.26604,-1.17644 -0.67746,2.06925 -0.0344,0.5725 0.0352,-0.17869 0.13292,-0.39131 0.0344,-0.5725 z m -2.0731,-2.95142 c 1.93216,0.34813 2.26867,2.60378 3.37209,3.89675 0.73829,1.59384 -2.31007,2.9194 -2.86448,1.18447 -0.34549,-1.63873 -1.80694,-3.4685 -0.50757,-5.08112 z m 4.36381,2.0354 c -0.51364,-2.02595 -2.36856,-4.16041 -4.64541,-3.74155 -1.89309,0.55102 -2.88716,3.00714 -1.94994,4.73156 0.4552,2.24696 1.74947,4.69989 4.1373,5.30605 2.21543,0.15869 3.934,-2.43505 3.0469,-4.44231 -0.13882,-0.63455 -0.35631,-1.24842 -0.58885,-1.85375 z m -9.93903,3.97449 c -1.26594,-1.17648 -0.67736,2.06921 -0.0344,0.57236 0.0353,-0.17859 0.13296,-0.39121 0.0344,-0.57236 z m -2.0731,-2.95142 c 1.93226,0.34809 2.26877,2.60374 3.37209,3.89675 0.73829,1.59383 -2.31007,2.9194 -2.86438,1.18443 -0.34549,-1.63873 -1.80694,-3.4685 -0.50767,-5.08108 z m 4.36391,2.03536 c -0.51374,-2.02591 -2.36866,-4.16037 -4.64551,-3.74151 -1.89299,0.55098 -2.88706,3.0071 -1.94984,4.73152 0.4551,2.24699 1.74947,4.69989 4.1373,5.30605 2.21533,0.15873 3.934,-2.43505 3.0468,-4.44227 -0.13872,-0.63459 -0.35631,-1.24842 -0.58875,-1.85379 z"
       style="font-size:40px;font-style:normal;font-variant:normal;font-weight:bold;font-stretch:normal;text-align:start;line-height:125%;writing-mode:lr-tb;text-anchor:start;fill:#000000;fill-opacity:1;stroke:none;font-family:Bitstream Vera Sans Mono;-inkscape-font-specification:Bitstream Vera Sans Mono Bold" />
    <path
       id="path5843"
       d="m 115.26791,-145.44689 c 1.4504,0.18175 3.0895,-0.47118 3.7474,-1.83348 0.5264,-1.25809 0.085,-2.70821 -0.6774,-3.76972 -0.6763,-0.90791 -1.907,-1.38387 -3.0085,-1.06167 -0.7722,0.17795 -1.4762,0.60639 -2.0221,1.1767 -0.231,0.47331 0.191,1.25513 0.4936,1.39495 0.5103,-0.72871 1.392,-1.36195 2.3226,-1.12434 0.8008,0.2417 1.2182,1.08374 1.3975,1.84294 0.1527,0.64574 -0.052,1.39849 -0.6471,1.75097 -0.471,0.31305 -1.0592,0.42357 -1.6175,0.35065 -0.658,-0.33527 -0.4177,0.4304 -0.1979,0.74846 0.07,0.17484 0.1398,0.34958 0.2097,0.52442 z m -6.499,2.59887 c 1.4503,0.1818 3.0894,-0.47114 3.7473,-1.83344 0.5263,-1.25809 0.085,-2.70821 -0.6774,-3.76972 -0.6763,-0.9079 -1.907,-1.38387 -3.0085,-1.06166 -0.7722,0.17794 -1.4761,0.60635 -2.0221,1.1767 -0.231,0.47331 0.191,1.25513 0.4936,1.39494 0.5102,-0.72866 1.3918,-1.36191 2.3226,-1.12433 0.8007,0.24173 1.2181,1.08378 1.3975,1.84293 0.1527,0.64575 -0.052,1.39854 -0.6471,1.75097 -0.4711,0.31309 -1.0593,0.42361 -1.6176,0.3507 -0.658,-0.33528 -0.4177,0.43039 -0.1979,0.74845 0.07,0.17484 0.1397,0.34958 0.2097,0.52442 z"
       style="font-size:40px;font-style:normal;font-variant:normal;font-weight:bold;font-stretch:normal;text-align:start;line-height:125%;writing-mode:lr-tb;text-anchor:start;fill:#000000;fill-opacity:1;stroke:none;font-family:Bitstream Vera Sans Mono;-inkscape-font-specification:Bitstream Vera Sans Mono Bold" />
    <path
       style="font-size:40px;font-style:normal;font-variant:normal;font-weight:bold;font-stretch:normal;text-align:start;line-height:125%;writing-mode:lr-tb;text-anchor:start;fill:#000000;fill-opacity:1;stroke:none;font-family:Bitstream Vera Sans Mono;-inkscape-font-specification:Bitstream Vera Sans Mono Bold"
       d="m 210.98611,-183.72345 c 1.4503,0.18179 3.0894,-0.47114 3.7473,-1.83344 0.5264,-1.25809 0.085,-2.70821 -0.6773,-3.76972 -0.6763,-0.90791 -1.907,-1.38387 -3.0085,-1.06166 -0.7723,0.17794 -1.4762,0.60635 -2.0221,1.1767 -0.231,0.47331 0.1909,1.25513 0.4936,1.39494 0.5102,-0.7287 1.3919,-1.36195 2.3225,-1.12433 0.8009,0.24169 1.2182,1.08374 1.3976,1.84293 0.1527,0.64575 -0.052,1.39849 -0.6471,1.75097 -0.4711,0.31305 -1.0593,0.42357 -1.6175,0.35065 -0.6581,-0.33527 -0.4177,0.4304 -0.198,0.74846 0.07,0.17484 0.1398,0.34958 0.2097,0.52442 z m -6.4991,2.59891 c 1.4504,0.18176 3.0894,-0.47113 3.7473,-1.83344 0.5264,-1.25808 0.085,-2.70821 -0.6773,-3.76971 -0.6763,-0.90791 -1.9071,-1.38388 -3.0085,-1.06167 -0.7723,0.17794 -1.4762,0.60635 -2.0221,1.1767 -0.231,0.47331 0.1909,1.25513 0.4936,1.39495 0.5101,-0.72867 1.3918,-1.36192 2.3225,-1.12434 0.8008,0.24174 1.2181,1.08378 1.3976,1.84293 0.1527,0.64575 -0.052,1.39854 -0.6471,1.75097 -0.4712,0.31309 -1.0594,0.42361 -1.6177,0.3507 -0.658,-0.33527 -0.4177,0.43039 -0.1979,0.74846 0.07,0.17483 0.1398,0.34957 0.2097,0.52441 z"
       id="path5845" />
    <path
       style="opacity:0.88399999;fill:none;stroke:#ffffff;stroke-width:5;stroke-linecap:round;stroke-linejoin:round;stroke-miterlimit:4;stroke-opacity:1;stroke-dasharray:none;filter:url(#filter5605)"
       d="m -46.92107,190.37868 323.31519,-129.796894 82.8002,211.668794 -5.9142,3.9937 -311.4868,125.8031 -5.9142,-7.9875 -82.80019,-203.6812 z"
       id="path5847"
       transform="matrix(1.065046,0,0,1.065046,138.19551,-300.70292)" />
    <path
       style="opacity:0.37600002;fill:#000000;fill-opacity:1;stroke:#000000;stroke-width:3.33524942;stroke-linecap:butt;stroke-linejoin:miter;stroke-miterlimit:4;stroke-opacity:1;stroke-dasharray:none"
       d="m 448.22631,-206.29274 c -1.00295,1.12853 -1.99877,2.2431 -2.99533,3.39494 -7.86899,4.16071 -13.09432,5.56785 -18.20569,6.85613 -3.25339,-0.28671 -6.85314,-0.39034 -12.91368,0.79879 -31.94616,1.67361 -61.77853,8.71963 -93.02516,13.21328 -17.34439,4.34336 -34.72849,6.58741 -52.02079,13.47954 -5.11244,5.9748 1.60161,10.14722 5.62483,10.65046 -10.65472,2.10069 -20.76893,4.72976 -32.78351,5.52481 -3.67515,3.44277 -11.13367,4.60409 0.36606,17.27377 l -7.55512,0.66566 c -5.29402,7.27511 -8.69226,14.38067 5.79119,19.83648 l 15.11034,-0.29949 c -6.6772,18.148274 3.52648,14.80584 8.4538,18.172238 l 127.97188,9.219358 c 7.94855,-1.690228 2.18165,30.525922 -3.49462,41.070836 -3.66429,11.074881 -3.97454,23.076245 6.7231,38.14196 9.52779,5.952755 9.72504,1.160154 12.38116,-0.798785 2.46143,-15.478313 5.56412,-35.629303 33.81521,-60.008632 3.432,-12.022346 29.8494,-57.834235 27.89089,-60.408135 2.49828,-1.58265 4.90571,-3.30654 7.22229,-5.19209 l -28.35685,-71.59112 z"
       id="path5849" />
    <path
       style="opacity:0.37600002;fill:#000000;fill-opacity:1;stroke:#000000;stroke-width:3.33524942;stroke-linecap:butt;stroke-linejoin:miter;stroke-miterlimit:4;stroke-opacity:1;stroke-dasharray:none"
       d="m 229.45926,-106.11174 c -2.62033,0.0671 -3.37417,2.37111 -5.05897,3.56119 -2.77711,15.424849 -7.34288,43.02115 -35.01338,59.30975 -7.9675,9.804494 -31.0279,57.229182 -29.1224,59.842272 -8.1824,4.952464 -15.2803,11.649367 -22.3326,19.204164 l 30.3204,73.621304 c 4.3482,-8.47606 9.5812,-13.389223 14.6444,-19.004463 7.9524,-3.99925 13.2022,-5.27326 18.3388,-6.45685 3.2468,0.35317 6.8635,0.53285 12.9469,-0.53252 31.97368,-1.02063 61.92618,-7.46171 93.25824,-11.31611 6.73705,-1.54155 13.46548,-2.79277 20.20254,-4.09372 l 33.88177,-13.51288 c -0.67247,-3.09438 -4.49854,-5.19902 -7.18906,-5.59149 10.69541,-1.88247 20.85499,-4.27626 32.8833,-4.82594 3.74459,-3.366925 11.23858,-4.371902 0,-17.273763 l 7.52189,-0.532523 c 5.44153,-7.16531 8.97716,-14.185987 -5.3918,-19.936277 l -15.077,0 c 7.04666,-18.016211 -3.23008,-14.872408 -8.08775,-18.338707 L 273.45897,-23.83694 c -14.9329,1.626645 -28.63514,2.633965 -35.04672,0 -8.94106,-4.163371 -1.5637,-30.544348 4.32686,-40.971041 3.88954,-10.997879 4.46339,-22.994024 -5.92443,-38.275089 -3.52658,-2.30476 -5.7832,-3.06925 -7.35542,-3.02867 z"
       id="path5851" />
    <text
       xml:space="preserve"
       style="font-size:40.8119545px;font-style:normal;font-weight:normal;fill:#000000;fill-opacity:1;stroke:none;font-family:Bitstream Vera Sans"
       x="33.242344"
       y="187.98433"
       id="text7358"><tspan
         sodipodi:role="line"
         id="tspan7360"
         x="33.242344"
         y="187.98433"
         style="font-style:normal;font-variant:normal;font-weight:normal;font-stretch:normal;font-family:FreeSerif;-inkscape-font-specification:FreeSerif" /></text>
  </g>
</svg>
